…
16        Excit_13 36601
17        Excit_14 36601
18        Excit_15 36601
19        Inhib_01 36601
20        Inhib_02 36601
21        Inhib_03 36601
22        Inhib_04 36601
23        Inhib_05 36601
24        Inhib_06 36601
25           Micro 36601
26        Oligo_01 36601
27        Oligo_02 36601
28        Oligo_03 36601
29             OPC 36601
# A tibble: 29 × 2
   cellType.target n_markers
   <chr>               <int>
 1 Excit_05                0
 2 Excit_09                0
 3 Excit_14                0
 4 Excit_15                0
 5 Oligo_03                0
 6 Inhib_03                5
 7 EndoMural_02           13
 8 Oligo_01               13
 9 Excit_02               21
10 Excit_04               42
# … with 19 more rows
# A tibble: 29 × 2
   cellType.target n_markers
   <fct>               <int>
 1 Excit_05                0
 2 Oligo_03                0
 3 Endo.Mural_02           1
 4 Excit_15                1
 5 Excit_09                4
 6 Inhib_03                6
 7 Oligo_01               13
 8 Excit_14               47
 9 Excit_02               68
10 Excit_04               80
# … with 19 more rows
# A tibble: 453 × 8
   gene    cellType.target mean.target cellType  mean ratio rank_ratio anno_ra…¹
   <chr>   <fct>                 <dbl> <fct>    <dbl> <dbl>      <int> <chr>    
 1 FBXL16  Excit_09              0.706 Excit_10 0.641 1.10           1 Excit_09…
 2 IDS     Excit_09              1.91  Excit_10 1.82  1.05           2 Excit_09…
 3 MTURN   Excit_09              1.05  Excit_10 1.00  1.05           3 Excit_09…
 4 CBX6    Excit_09              0.775 Excit_10 0.768 1.01           4 Excit_09…
 5 TPPP    Excit_09              0.844 Excit_10 0.844 0.999          5 Excit_09…
 6 MAP1A   Excit_09              1.35  Excit_10 1.36  0.990          6 Excit_09…
 7 JUND    Excit_09              0.772 Excit_10 0.781 0.989          7 Excit_09…
 8 CAMK2N1 Excit_09              1.61  Excit_10 1.64  0.978          8 Excit_09…
 9 ADCY1   Excit_09              0.979 Excit_10 1.00  0.976          9 Excit_09…
10 NFIX    Excit_09              0.735 Excit_10 0.757 0.971         10 Excit_09…
# … with 443 more rows, and abbreviated variable name ¹​anno_ratio
…
