…
     Astro       drop  EndoMural      Excit      Inhib MicroOligo      Oligo 
         1          4          1         13          6          1          2 
       OPC 
         1 
# A tibble: 29 × 3
   broad     ct           cellType 
   <chr>     <chr>        <fct>    
 1 Astro     Astro_01     Astro    
 2 drop      drop_01      drop_01  
 3 drop      drop_02      drop_02  
 4 drop      drop_03      drop_03  
 5 drop      drop_04      drop_04  
 6 EndoMural EndoMural_01 EndoMural
 7 Excit     Excit_01     Excit_01 
 8 Excit     Excit_02     Excit_02 
 9 Excit     Excit_03     Excit_03 
10 Excit     Excit_04     Excit_04 
# … with 19 more rows
…
